# | From svn.tartarus.org/snowball/trunk/website/algorithms/spanish/stop.txt
# | This file is distributed under the BSD License.
# | See http://snowball.tartarus.org/license.php
# | Also see http://www.opensource.org/licenses/bsd-license.html
# |  - Encoding was converted to UTF-8.
# |  - This notice was added.
#
# | A Spanish stop word list. Comments begin with vertical bar. Each stop
# | word is at the start of a line.
#
#
# | The following is a ranked list (commonest to rarest) of stopwords
# | deriving from a large sample of text.
#
# | Extra words have been added at the end.

de             
la             
que            
el             
en             
y              
a              
los            
del            
se             
las            
por            
un             
para           
con            
no             
una            
su             
al             
es         
lo             
como           
más            
pero           
sus            
le             
ya             
o              
fue        
este           
ha         
sí             
porque         
esta           
son        
entre          
está
cuando         
muy            
sin            
sobre          
ser        
tiene      
también        
me             
hasta          
hay            
donde          
han        
quien          
están      
estado     
desde          
todo           
nos            
durante        
estados    
todos          
uno            
les            
ni             
contra         
otros          
fueron     
ese            
eso            
había      
ante           
ellos          
e              
esto           
mí             
antes          
algunos        
qué            
unos           
yo             
otro           
otras          
otra           
él             
tanto          
esa            
estos          
mucho          
quienes        
nada           
muchos         
cual           
sea        
#poco
ella           
estar          
haber      
estas          
estaba     
estamos    
algunas        
algo           
nosotros       


mi             
mis            
tú             
te             
ti             
tu             
tus            
ellas          
nosotras       
vosotros       
vosotras       
os             
mío            
mía            
míos           
mías           
tuyo           
tuya           
tuyos          
tuyas          
suyo           
suya           
suyos          
suyas          
nuestro        
nuestra        
nuestros       
nuestras       
vuestro        
vuestra        
vuestros       
vuestras       
esos           
esas

estoy
estás
está
estamos
estáis
están
esté
estés
estemos
estéis
estén
estaré
estarás
estará
estaremos
estaréis
estarán
estaría
estarías
estaríamos
estaríais
estarían
estaba
estabas
estábamos
estabais
estaban
estuve
estuviste
estuvo
estuvimos
estuvisteis
estuvieron
estuviera
estuvieras
estuviéramos
estuvierais
estuvieran
estuviese
estuvieses
estuviésemos
estuvieseis
estuviesen
estando
estado
estada
estados
estadas
estad

he
has
ha
hemos
habéis
han
haya
hayas
hayamos
hayáis
hayan
habré
habrás
habrá
habremos
habréis
habrán
habría
habrías
habríamos
habríais
habrían
había
habías
habíamos
habíais
habían
hube
hubiste
hubo
hubimos
hubisteis
hubieron
hubiera
hubieras
hubiéramos
hubierais
hubieran
hubiese
hubieses
hubiésemos
hubieseis
hubiesen
habiendo
habido
habida
habidos
habidas

soy
eres
es
somos
sois
son
sea
seas
seamos
seáis
sean
seré
serás
será
seremos
seréis
serán
sería
serías
seríamos
seríais
serían
era
eras
éramos
erais
eran
fui
fuiste
fue
fuimos
fuisteis
fueron
fuera
fueras
fuéramos
fuerais
fueran
fuese
fueses
fuésemos
fueseis
fuesen
siendo
sido
# sed

tengo
tienes
tiene
tenemos
tenéis
tienen
tenga
tengas
tengamos
tengáis
tengan
tendré
tendrás
tendrá
tendremos
tendréis
tendrán
tendría
tendrías
tendríamos
tendríais
tendrían
tenía
tenías
teníamos
teníais
tenían
tuve
tuviste
tuvo
tuvimos
tuvisteis
tuvieron
tuviera
tuvieras
tuviéramos
tuvierais
tuvieran
tuviese
tuvieses
tuviésemos
tuvieseis
tuviesen
teniendo
tenido
tenida
tenidos
tenidas
tened

#

1
2
3
4
5
uno
dos
tres
cuatro
cinco
tan
dan
tenia
igual
vez
dieron
hacia
habia
cada
toda
daba
poco
aunque
además
cuanto
resto
allí
todas
hace
cualquier
demás
casi
demasiado
incluso
así
the
poder
da
ningún
ningun
mucha
totalmente
decir
si
mas
vas
bastante
solo
puede
?
in
etc
mismo
varios
dentro

#More words (20161004)

x
daban
teniamos
pudimos
tocó
llegas
q
hizo
dejan
quizás
va
ir
varias
van
vayan
quedarse
podría
vaya
resulta
sólo
nunca
¡
queréis
dicho
hacerte
llama
debes

#
pido
hacer
quedan
demas
vuelves
unas
salvo
hacen
debo
toco
podía
pedí
mia
s
d
ahi
ahí


